10013:
3.4
3.3
3.4
3.9
3.3
3.4
3.3
3.4
3.3
3.9
3.1
4.0
3.3
3.4
3.2
3.3
3.1
3.2
3.3
3.1
3.2
2.7
3.2
3.4
3.9
3.2
3.3
2.7
3.1
3.3
3.2
2.7
3.1
3.9
3.2
3.1
3.3
4.0
3.9
2.7
4.0
3.3
3.4
3.3
3.4
2.7
3.3
3.4
3.1
3.4
3.2
3.2
3.4
3.9
3.3
2.7
3.9
10014:
3.2
4.0
2.7
3.4
3.2
10015:
3.9
3.3
3.1
3.4
4.0
3.4
4.1
4.0
4.0
3.4
4.0
3.9
3.4
4.2
4.1
3.4
3.9
4.1
3.9
4.1
4.6
4.1
4.6
2.4
3.3
3.4
4.1
3.9
10016:
2.7
2.4
2.5
3.1
3.4
10017:
3.2
3.4
3.2
10018:
4.6
4.0
2.7
3.2
3.4
4.0
3.4
3.3
2.6
4.0
3.9
4.0
4.0
3.9
3.3
3.9
3.4
3.9
3.9
3.9
3.4
3.3
4.1
4.1
3.4
4.0
3.9
4.1
3.9
4.1
10019:
3.4
3.2
3.9
3.1
4.2
4.1
3.4
2.7
3.9
3.3
4.2
3.1
3.2
3.3
3.9
3.4
4.0
3.4
3.3
4.2
3.9
4.0
3.9
3.4
4.0
4.0
3.2
3.3
3.3
3.9
3.3
3.3
3.9
4.0
3.2
4.0
2.6
3.9
4.0
4.0
4.0
4.1
3.9
4.0
4.1
3.1
3.9
4.1
4.1
3.9
3.2
3.3
3.9
3.3
3.4
2.5
3.1
3.3
4.2
3.3
3.1
3.3
3.3
3.3
4.0
RMSE: 0.95
